[
  {
    "npcs": "5198,5199",
    "high_alch": "0",
    "currency": "995",
    "general_store": "false",
    "id": "1",
    "title": "Ava's Odds and Ends",
    "stock": "{314,1000,100}-{884,40,100}-{886,10,100}-{40,30,100}-{41,20,100}"
  },
  {
    "npcs": "528,529",
    "high_alch": "0",
    "currency": "995",
    "general_store": "true",
    "id": "2",
    "title": "Edgeville General Store",
    "stock": "{1931,30,100}-{1935,30,100}-{1735,10,100}-{1925,10,100}-{1923,10,100}-{1887,10,100}-{590,10,100}-{1755,10,100}-{2347,10,100}-{550,10,100}-{9003,10,100}"
  },
  {
    "npcs": "525,524",
    "high_alch": "0",
    "currency": "995",
    "general_store": "true",
    "id": "3",
    "title": "Al Kharid General Store",
    "stock": "{1931,30,100}-{1935,30,100}-{1735,10,100}-{1925,10,100}-{1923,10,100}-{1887,10,100}-{590,10,100}-{1755,10,100}-{2347,10,100}-{550,10,100}-{9003,10,100}"
  },
  {
    "npcs": "3799",
    "high_alch": "0",
    "currency": "995",
    "general_store": "true",
    "id": "4",
    "title": "Void Knight General Store",
    "stock": "{1931,30,100}-{1935,30,100}-{1735,10,100}-{1925,10,100}-{1923,10,100}-{1887,10,100}-{590,10,100}-{1755,10,100}-{2347,10,100}-{550,10,100}-{9003,10,100}-{7934,25,100}"
  },
  {
    "npcs": "1436",
    "high_alch": "0",
    "currency": "995",
    "general_store": "true",
    "id": "5",
    "title": "Ifaba's General Store",
    "stock": "{1931,30,100}-{1935,30,100}-{1735,10,100}-{1925,10,100}-{1923,10,100}-{1887,10,100}-{590,10,100}-{1755,10,100}-{2347,10,100}-{550,10,100}-{9003,10,100}"
  },
  {
    "npcs": "590",
    "high_alch": "0",
    "currency": "995",
    "general_store": "true",
    "id": "6",
    "title": "Aemad's Adventuring Supplies Store",
    "stock": "{227,300,100}-{1265,10,100}-{1349,10,100}-{2142,10,100}-{590,10,100}-{1759,100,100}-{882,1000,100}-{954,10,100}-{970,10,100}-{946,10,100}-{1935,10,100}"
  },
  {
    "npcs": "591",
    "high_alch": "0",
    "currency": "995",
    "general_store": "true",
    "id": "7",
    "title": "Kortan General Store",
    "stock": "{1931,30,100}-{1935,30,100}-{1735,10,100}-{1925,10,100}-{1923,10,100}-{1887,10,100}-{590,10,100}-{1755,10,100}-{2347,10,100}-{550,10,100}-{9003,10,100}"
  },
  {
    "npcs": "971",
    "high_alch": "0",
    "currency": "995",
    "general_store": "true",
    "id": "8",
    "title": "West Ardougne General Store",
    "stock": "{1931,10,100}-{954,10,100}-{1265,10,100}-{1925,30,100}-{590,10,100}-{2347,10,100}-{1061,10,100}-{841,10,100}-{882,100,100}-{329,10,100}-{2327,10,100}-{2309,10,100}-{2142,10,100}"
  },
  {
    "npcs": "1917",
    "high_alch": "0",
    "currency": "995",
    "general_store": "true",
    "id": "9",
    "title": "Bandit Bargains",
    "stock": "{1823,5,100}-{1831,5,100}-{1937,5,100}-{1921,5,100}-{1929,5,100}-{1935,5,100}-{1923,5,100}-{1925,5,100}-{1837,5,100}-{1833,5,100}-{1835,5,100}-{946,5,100}"
  },
  {
    "npcs": "597",
    "high_alch": "1",
    "currency": "995",
    "general_store": "true",
    "id": "10",
    "title": "Bandit Duty Free",
    "stock": "{1931,30,100}-{1935,30,100}-{1735,10,100}-{1925,10,100}-{1923,10,100}-{1887,10,100}-{590,10,100}-{1755,10,100}-{2347,10,100}-{550,10,100}-{9003,10,100}"
  },
  {
    "npcs": "1083",
    "high_alch": "0",
    "currency": "995",
    "general_store": "true",
    "id": "11",
    "title": "Burthorpe Supplies",
    "stock": "{1931,30,100}-{1935,30,100}-{1735,10,100}-{1925,10,100}-{1923,10,100}-{1887,10,100}-{590,10,100}-{1755,10,100}-{2347,10,100}-{550,10,100}-{9003,10,100}"
  },
  {
    "npcs": "3541,7396",
    "high_alch": "0",
    "currency": "995",
    "general_store": "true",
    "id": "12",
    "title": "Aurel's Supplies",
    "stock": "{1931,30,100}-{1935,30,100}-{1735,10,100}-{1925,10,100}-{1923,10,100}-{1887,10,100}-{590,10,100}-{1755,10,100}-{2347,10,100}-{550,10,100}-{9003,10,100}"
  },
  {
    "npcs": "1040",
    "high_alch": "0",
    "currency": "995",
    "general_store": "true",
    "id": "13",
    "title": "General Store (Canifis)",
    "stock": "{1931,30,100}-{1935,30,100}-{1735,10,100}-{1925,10,100}-{1923,10,100}-{1887,10,100}-{590,10,100}-{1755,10,100}-{2347,10,100}-{550,10,100}-{9003,10,100}-{3377,10,100}"
  },
  {
    "npcs": "563",
    "high_alch": "0",
    "currency": "995",
    "general_store": "true",
    "id": "14",
    "title": "Arhein's Store",
    "stock": "{1931,30,100}-{1935,30,100}-{1735,10,100}-{1925,10,100}-{1923,10,100}-{1887,10,100}-{590,10,100}-{1755,10,100}-{2347,10,100}-{550,10,100}-{9003,10,100}"
  },
  {
    "npcs": "5798",
    "high_alch": "0",
    "currency": "995",
    "general_store": "true",
    "id": "15",
    "title": "Dorgesh-Kaan General Supplies",
    "stock": "{1931,30,100}-{1935,30,100}-{1735,10,100}-{1925,10,100}-{1923,10,100}-{1887,10,100}-{590,10,100}-{1755,10,100}-{2347,10,100}-{550,10,100}-{9003,10,100}"
  },
  {
    "npcs": "582",
    "high_alch": "0",
    "currency": "995",
    "general_store": "true",
    "id": "16",
    "title": "Dwarven Shopping Store",
    "stock": "{1931,30,100}-{1935,30,100}-{1735,10,100}-{1925,10,100}-{1923,10,100}-{1887,10,100}-{590,10,100}-{1755,10,100}-{2347,10,100}-{550,10,100}-{9003,10,100}"
  },
  {
    "npcs": "526,527",
    "high_alch": "0",
    "currency": "995",
    "general_store": "true",
    "id": "17",
    "title": "Falador General Store",
    "stock": "{1931,30,100}-{1935,30,100}-{1735,10,100}-{1925,10,100}-{1923,10,100}-{1887,10,100}-{590,10,100}-{1755,10,100}-{2347,10,100}-{550,10,100}-{9003,10,100}"
  },
  {
    "npcs": "873",
    "high_alch": "0",
    "currency": "995",
    "general_store": "true",
    "id": "18",
    "title": "Dal's General Ogre Supplies",
    "stock": "{1931,30,100}-{1935,30,100}-{1735,10,100}-{1925,10,100}-{1923,10,100}-{1887,10,100}-{590,10,100}-{1755,10,100}-{2347,10,100}-{550,10,100}-{9003,10,100}"
  },
  {
    "npcs": "532,533",
    "high_alch": "0",
    "currency": "995",
    "general_store": "true",
    "id": "19",
    "title": "Karamja General Store",
    "stock": "{1931,30,100}-{1935,30,100}-{1735,10,100}-{1925,10,100}-{1923,10,100}-{1887,10,100}-{590,10,100}-{1755,10,100}-{2347,10,100}-{550,10,100}-{9003,10,100}"
  },
  {
    "npcs": "568",
    "high_alch": "0",
    "currency": "995",
    "general_store": "true",
    "id": "20",
    "title": "Karamja Wines, Spirits, and Beers",
    "stock": "{1917,3,100}-{431,3,100}-{1993,1,100}"
  },
  {
    "npcs": "2154",
    "high_alch": "0",
    "currency": "995",
    "general_store": "true",
    "id": "21",
    "title": "Gunslik's Assorted Items",
    "stock": "{1931,30,100}-{1935,30,100}-{1735,10,100}-{1925,10,100}-{1923,10,100}-{1887,10,100}-{590,10,100}-{1755,10,100}-{2347,10,100}-{550,10,100}-{9003,10,100}"
  },
  {
    "npcs": "1334",
    "high_alch": "0",
    "currency": "995",
    "general_store": "true",
    "id": "22",
    "title": "The Lighthouse Store",
    "stock": "{1931,30,100}-{1935,30,100}-{1735,10,100}-{1925,10,100}-{1923,10,100}-{1887,10,100}-{590,10,100}-{1755,10,100}-{2347,10,100}-{550,10,100}-{9003,10,100}"
  },
  {
    "npcs": "2352",
    "high_alch": "0",
    "currency": "995",
    "general_store": "true",
    "id": "23",
    "title": "Lletya General Store",
    "stock": "{1931,10,100}-{954,10,100}-{1265,10,100}-{1925,30,100}-{590,10,100}-{2347,10,100}-{1061,10,100}-{841,10,100}-{882,100,100}-{329,10,100}-{2327,10,100}-{2309,10,100}-{2142,10,100}"
  },
  {
    "npcs": "4516",
    "high_alch": "0",
    "currency": "995",
    "general_store": "true",
    "id": "24",
    "title": "Moon Clan General Store",
    "stock": "{1931,30,100}-{1935,10,100}-{1735,10,100}-{1925,30,100}-{1923,10,100}-{1887,10,100}-{590,10,100}-{1755,10,100}-{2347,10,100}-{9003,10,100}-{229,1000,100}"
  },
  {
    "npcs": "520,521",
    "high_alch": "0",
    "currency": "995",
    "general_store": "true",
    "id": "25",
    "title": "Lumbridge General Store",
    "stock": "{1931,30,100}-{1935,30,100}-{1735,10,100}-{1925,10,100}-{1923,10,100}-{1887,10,100}-{590,10,100}-{1755,10,100}-{2347,10,100}-{550,10,100}-{9003,10,100}"
  },
  {
    "npcs": "4716",
    "high_alch": "0",
    "currency": "995",
    "general_store": "true",
    "id": "26",
    "title": "Trader Sven's Black Market Goods",
    "stock": "{1931,30,100}-{1935,30,100}-{1735,10,100}-{1925,10,100}-{1923,10,100}-{1887,10,100}-{590,10,100}-{1755,10,100}-{2347,10,100}-{550,10,100}-{9003,10,100}"
  },
  {
    "npcs": "3922",
    "high_alch": "0",
    "currency": "995",
    "general_store": "true",
    "id": "27",
    "title": "Miscellanian General Store",
    "stock": "{1931,30,100}-{1935,30,100}-{1735,10,100}-{1925,10,100}-{1923,10,100}-{1887,10,100}-{590,10,100}-{1755,10,100}-{2347,10,100}-{550,10,100}-{9003,10,100}"
  },
  {
    "npcs": "1254",
    "high_alch": "0",
    "currency": "995",
    "general_store": "true",
    "id": "28",
    "title": "Razmire General Store",
    "stock": "{1931,30,100}-{1935,30,100}-{1735,10,100}-{1925,10,100}-{1923,10,100}-{1887,10,100}-{590,10,100}-{1755,10,100}-{2347,10,100}-{550,10,100}-{9003,10,100}"
  },
  {
    "npcs": "3039",
    "high_alch": "0",
    "currency": "995",
    "general_store": "true",
    "id": "29",
    "title": "Nardah General Store",
    "stock": "{1931,30,100}-{1935,30,100}-{1735,10,100}-{1925,10,100}-{1923,10,100}-{1887,10,100}-{590,10,100}-{1755,10,100}-{2347,10,100}-{550,10,100}-{9003,10,100}"
  },
  {
    "npcs": "3824",
    "high_alch": "0",
    "currency": "995",
    "general_store": "true",
    "id": "30",
    "title": "Arnold's Eclectic Supplies",
    "stock": "{303,10,100}-{311,10,100}-{7944,0,100}-{7946,0,100}-{2309,10,100}-{1931,30,100}-{1927,10,100}-{1733,10,100}-{1734,1000,100}-{1755,10,100}-{1917,10,100}-{1785,10,100}-{946,10,100}"
  },
  {
    "npcs": "1866",
    "high_alch": "0",
    "currency": "995",
    "general_store": "true",
    "id": "31",
    "title": "Pollnivneach General Store",
    "stock": "{1931,30,100}-{1935,30,100}-{1735,10,100}-{1925,10,100}-{1923,10,100}-{1887,10,100}-{590,10,100}-{1755,10,100}-{2347,10,100}-{550,10,100}-{9003,10,100}"
  },
  {
    "npcs": "1699",
    "high_alch": "0",
    "currency": "995",
    "general_store": "true",
    "id": "33",
    "title": "Port Phasmatys General Store",
    "stock": "{1931,30,100}-{1935,30,100}-{1735,10,100}-{1925,10,100}-{1923,10,100}-{1887,10,100}-{590,10,100}-{1755,10,100}-{2347,10,100}-{550,10,100}-{9003,10,100}"
  },
  {
    "npcs": "530,531",
    "high_alch": "0",
    "currency": "995",
    "general_store": "true",
    "id": "34",
    "title": "Rimmington General Store",
    "stock": "{1931,30,100}-{1935,30,100}-{1735,10,100}-{1925,10,100}-{1923,10,100}-{1887,10,100}-{590,10,100}-{1755,10,100}-{2347,10,100}-{550,10,100}-{9003,10,100}"
  },
  {
    "npcs": "836",
    "high_alch": "0",
    "currency": "995",
    "general_store": "true",
    "id": "35",
    "title": "Shantay Pass Shop",
    "stock": "{1823,30,100}-{1831,30,100}-{1937,10,100}-{1921,10,100}-{1929,10,100}-{946,10,100}-{1833,10,100}-{1835,10,100}-{1837,10,100}-{2349,0,100}-{314,1000,100}-{2347,10,100}-{1925,30,100}-{1923,10,100}-{1935,10,100}-{1854,300,100}-{954,100,100}"
  },
  {
    "npcs": "516",
    "high_alch": "0",
    "currency": "995",
    "general_store": "true",
    "id": "36",
    "title": "Obli's General Store",
    "stock": "{590,10,100}-{229,1000,100}-{233,10,100}-{1931,30,100}-{1351,10,100}-{1265,10,100}-{1349,10,100}-{1129,10,100}-{1059,10,100}-{1061,10,100}-{2142,10,100}-{2309,10,100}-{952,10,100}-{36,10,100}-{596,10,100}-{1755,10,100}-{2347,10,100}-{970,10,100}-{973,10,100}-{227,1000,100}-{975,10,100}-{954,10,100}"
  },
  {
    "npcs": "560",
    "high_alch": "0",
    "currency": "995",
    "general_store": "true",
    "id": "37",
    "title": "Jiminua's Jungle Store",
    "stock": "{590,10,100}-{36,10,100}-{596,10,100}-{1931,30,100}-{954,10,100}-{1129,10,100}-{1059,10,100}-{1061,10,100}-{2142,10,100}-{2309,10,100}-{227,300,100}-{233,10,100}-{175,10,100}-{970,10,100}-{973,10,100}-{946,10,100}-{2347,10,100}-{975,10,100}-{1755,10,100}-{952,10,100}-{1351,10,100}-{1265,10,100}-{1349,10,100}-{229,300,100}"
  },
  {
    "npcs": "471",
    "high_alch": "0",
    "currency": "995",
    "general_store": "true",
    "id": "38",
    "title": "Bolkoy's Village Shop",
    "stock": "{1931,30,100}-{1935,30,100}-{1735,10,100}-{1925,10,100}-{1923,10,100}-{1887,10,100}-{590,10,100}-{1755,10,100}-{2347,10,100}-{550,10,100}-{9003,10,100}"
  },
  {
    "npcs": "1208",
    "high_alch": "0",
    "currency": "995",
    "general_store": "true",
    "id": "39",
    "title": "Quartermaster's Stores",
    "stock": "{1931,30,100}-{1935,10,100}-{1735,10,100}-{590,10,100}-{2309,10,100}-{3190,10,100}-{3192,10,100}-{3194,10,100}-{3196,10,100}-{3198,10,100}-{3200,10,100}-{3202,10,100}-{3204,10,100}"
  },
  {
    "npcs": "522,523",
    "high_alch": "0",
    "currency": "995",
    "general_store": "true",
    "id": "40",
    "title": "Varrock General Store",
    "stock": "{1931,30,100}-{1935,30,100}-{1735,10,100}-{1925,10,100}-{1923,10,100}-{1887,10,100}-{590,10,100}-{1755,10,100}-{2347,10,100}-{550,10,100}-{9003,10,100}"
  },
  {
    "npcs": "4651,4652,4653,4654,4655,4656,4650",
    "high_alch": "0",
    "currency": "995",
    "general_store": "true",
    "id": "41",
    "title": "Trader Stan's Trading Post",
    "stock": "{1931,30,100}-{1935,10,100}-{1735,10,100}-{1925,30,100}-{1923,10,100}-{1887,10,100}-{590,10,100}-{1755,10,100}-{2347,10,100}-{550,10,100}-{9003,10,100}-{954,10,100}-{946,10,100}-{2114,0,100}-{1963,10,100}-{2108,0,100}-{1785,10,100}-{1783,0,100}-{401,0,100}-{1781,0,100}-{301,10,100}-{307,10,100}-{1941,10,100}-{9629,10,100}-{3226,10,100}-{1025,10,100}"
  },
  {
    "npcs": "534,535",
    "high_alch": "0",
    "currency": "995",
    "general_store": "true",
    "id": "42",
    "title": "Zanaris General Store",
    "stock": "{1931,30,100}-{1935,30,100}-{1735,10,100}-{1925,10,100}-{1923,10,100}-{1887,10,100}-{590,10,100}-{1755,10,100}-{2347,10,100}-{550,10,100}-{9003,10,100}"
  },
  {
    "npcs": "588",
    "high_alch": "0",
    "currency": "995",
    "general_store": "false",
    "id": "43",
    "title": "Davon's Amulet Store",
    "stock": "{1718,0,100}-{1727,0,100}-{1729,0,100}-{1725,0,100}-{1731,0,100}"
  },
  {
    "npcs": "2356",
    "high_alch": "0",
    "currency": "995",
    "general_store": "false",
    "id": "44",
    "title": "Lletya Archery Shop",
    "stock": "{884,1000,100}-{886,300,100}-{888,100,100}-{890,100,100}-{892,30,100}-{877,1000,100}-{843,10,100}-{837,10,100}-{849,10,100}"
  },
  {
    "npcs": "3796",
    "high_alch": "0",
    "currency": "995",
    "general_store": "false",
    "id": "45",
    "title": "Void Knight Archery Store",
    "stock": "{825,300,100}-{826,300,100}-{827,100,100}-{828,100,100}-{829,250,100}-{830,10,100}-{39,100,100}-{40,100,100}-{41,100,100}-{42,30,100}-{43,30,100}-{44,10,100}"
  },
  {
    "npcs": "1860",
    "high_alch": "1",
    "currency": "995",
    "general_store": "false",
    "id": "46",
    "title": "Brian's Archery Supplies",
    "stock": "{886,100,100}-{888,30,100}-{890,0,100}-{843,10,100}-{845,10,100}-{849,10,100}-{847,10,100}-{853,10,100}-{851,10,100}"
  },
  {
    "npcs": "550",
    "high_alch": "0",
    "currency": "995",
    "general_store": "false",
    "id": "47",
    "title": "Lowe's Archery Emporium",
    "stock": "{882,1000,100}-{884,100,100}-{886,100,100}-{888,100,100}-{890,30,100}-{877,300,100}-{841,10,100}-{843,10,100}-{849,10,100}-{853,10,100}-{837,10,100}-{839,10,100}-{845,10,100}-{847,10,100}-{851,10,100}"
  },
  {
    "npcs": "575",
    "high_alch": "0",
    "currency": "995",
    "general_store": "false",
    "id": "48",
    "title": "Hickton's Archery Emporium",
    "stock": "{877,300,100}-{882,1000,100}-{884,100,100}-{886,0,100}-{888,0,100}-{890,0,100}-{892,0,100}-{4773,0,100}-{4778,0,100}-{4783,0,100}-{4788,0,100}-{4793,0,100}-{4798,0,100}-{4803,0,100}-{841,10,100}-{837,10,100}-{843,10,100}-{4827,10,100}-{1133,10,100}-{1097,10,100}"
  },
  {
    "npcs": "683",
    "high_alch": "0",
    "currency": "995",
    "general_store": "false",
    "id": "49",
    "title": "Dargaud's Bows And Arrows",
    "stock": "{52,1000,100}-{39,1000,100}-{40,300,100}-{41,300,100}-{42,100,100}-{43,100,100}-{44,100,100}-{882,1000,100}-{884,300,100}-{886,300,100}-{888,100,100}-{890,100,100}-{892,100,100}-{4773,0,100}-{4778,0,100}-{4783,0,100}-{4788,0,100}-{4793,0,100}-{4798,0,100}-{4803,0,100}-{841,10,100}-{843,10,100}-{849,10,100}-{839,20,100}-{845,20,100}-{847,20,100}-{4827,10,100}"
  },
  {
    "npcs": "682",
    "high_alch": "0",
    "currency": "995",
    "general_store": "false",
    "id": "50",
    "title": "Aaron's Archery Appendages",
    "stock": "{1129,10,100}-{1131,10,100}-{1133,10,100}-{1095,10,100}-{1097,10,100}-{1169,10,100}-{1167,10,100}-{1063,10,100}"
  },
  {
    "npcs": "4563",
    "high_alch": "0",
    "currency": "995",
    "general_store": "false",
    "id": "51",
    "title": "Crossbow Shop (dwarven Mine)",
    "stock": "{9440,10,100}-{9442,10,100}-{9444,10,100}-{9446,10,100}-{9448,10,100}-{9450,10,100}-{9452,0,100}-{9420,10,100}-{9423,10,100}-{9425,10,100}-{9427,10,100}-{9429,10,100}-{9431,0,100}"
  },
  {
    "npcs": "4558",
    "high_alch": "0",
    "currency": "995",
    "general_store": "false",
    "id": "52",
    "title": "Crossbow Shop (keldagrim)",
    "stock": "{9440,10,100}-{9442,10,100}-{9444,10,100}-{9446,10,100}-{9448,10,100}-{9450,10,100}-{9452,0,100}-{9420,10,100}-{9423,10,100}-{9425,10,100}-{9427,10,100}-{9429,10,100}-{9431,0,100}"
  },
  {
    "npcs": "4559",
    "high_alch": "0",
    "currency": "995",
    "general_store": "false",
    "id": "53",
    "title": "Crossbow Shop (white Wolf Mountain)",
    "stock": "{9440,10,100}-{9442,10,100}-{9444,10,100}-{9446,10,100}-{9448,10,100}-{9450,10,100}-{9452,0,100}-{9420,10,100}-{9423,10,100}-{9425,10,100}-{9427,10,100}-{9429,10,100}-{9431,0,100}"
  },
  {
    "npcs": "519",
    "high_alch": "0",
    "currency": "995",
    "general_store": "false",
    "id": "54",
    "title": "Bob's Brilliant Axes",
    "stock": "{1265,10,100}-{1351,10,100}-{1349,10,100}-{1353,10,100}-{1363,10,100}-{1365,10,100}-{1369,10,100}"
  },
  {
    "npcs": "559",
    "high_alch": "1",
    "currency": "995",
    "general_store": "false",
    "id": "55",
    "title": "Brian's Battleaxe Bazaar",
    "stock": "{1375,4,100}-{1363,3,100}-{1365,2,100}-{1367,1,100}-{1369,1,100}-{1371,1,100}"
  },
  {
    "npcs": "562",
    "high_alch": "0",
    "currency": "995",
    "general_store": "false",
    "id": "56",
    "title": "Candle Shop",
    "stock": "{36,10,100}-{38,10,100}"
  },
  {
    "npcs": "562",
    "high_alch": "0",
    "currency": "995",
    "general_store": "false",
    "id": "57",
    "title": "Candle Shop",
    "stock": "{36,10,100}"
  },
  {
    "npcs": "581",
    "high_alch": "0",
    "currency": "995",
    "general_store": "false",
    "id": "58",
    "title": "Wayne's Chains",
    "stock": "{1103,3,100}-{1101,2,100}-{1105,1,100}-{1107,1,100}-{1109,1,100}-{1111,1,100}"
  },
  {
    "npcs": "554",
    "high_alch": "0",
    "currency": "995",
    "general_store": "false",
    "id": "59",
    "title": "Fancy Clothes Store",
    "stock": "{1949,10,100}-{958,10,100}-{948,10,100}-{1733,10,100}-{1734,1000,100}-{1059,30,100}-{1061,10,100}-{1757,10,100}-{1013,10,100}-{1025,10,100}-{10088,0,100}-{10090,0,100}-{10091,0,100}-{10089,0,100}-{10087,0,100}-{11525,0,100}"
  },
  {
    "npcs": "548",
    "high_alch": "0",
    "currency": "995",
    "general_store": "false",
    "id": "60",
    "title": "Thessalia's Fine Clothes",
    "stock": "{1005,10,100}-{1129,10,100}-{1059,10,100}-{1061,10,100}-{1757,10,100}-{1013,10,100}-{1015,10,100}-{1011,10,100}-{1007,10,100}-{950,10,100}-{426,10,100}-{428,10,100}"
  },
  {
    "npcs": "601",
    "high_alch": "0",
    "currency": "995",
    "general_store": "false",
    "id": "61",
    "title": "Fine Fashions",
    "stock": "{646,5,100}-{648,5,100}-{650,5,100}-{652,5,100}-{654,5,100}-{656,5,100}-{658,5,100}-{660,5,100}-{662,5,100}-{664,5,100}-{636,5,100}-{638,5,100}-{640,5,100}-{642,5,100}-{644,5,100}-{626,5,100}-{628,5,100}-{630,30,100}-{632,30,100}-{634,30,100}"
  },
  {
    "npcs": "1301",
    "high_alch": "0",
    "currency": "995",
    "general_store": "false",
    "id": "62",
    "title": "Yrsa's Accoutrements",
    "stock": "{3775,10,100}-{3773,10,100}-{3767,10,100}-{3769,10,100}-{3771,10,100}-{3793,10,100}-{3795,10,100}-{3797,10,100}-{3791,10,100}-{3799,10,100}-{3759,10,100}-{3761,10,100}-{3765,10,100}-{3763,10,100}-{3777,10,100}-{3779,10,100}-{3781,10,100}-{3783,10,100}-{3785,10,100}-{3787,10,100}-{3789,10,100}"
  },
  {
    "npcs": "1039",
    "high_alch": "0",
    "currency": "995",
    "general_store": "false",
    "id": "63",
    "title": "Barker's Haberdashery",
    "stock": "{2894,5,100}-{2896,5,100}-{2898,5,100}-{2900,5,100}-{2902,5,100}-{2904,5,100}-{2906,5,100}-{2908,5,100}-{2910,5,100}-{2912,5,100}-{2914,5,100}-{2916,5,100}-{2918,5,100}-{2920,5,100}-{2922,5,100}-{2924,5,100}-{2926,5,100}-{2928,5,100}-{2930,5,100}-{2932,5,100}-{2934,5,100}-{2936,5,100}-{2938,5,100}-{2940,5,100}-{2942,5,100}-{1007,5,100}-{1023,5,100}-{1019,5,100}-{1021,5,100}-{1027,5,100}"
  },
  {
    "npcs": "2353",
    "high_alch": "0",
    "currency": "995",
    "general_store": "false",
    "id": "64",
    "title": "Lletya Seamstress",
    "stock": "{1734,1000,100}-{1733,10,100}-{1759,100,100}-{1763,10,100}-{1765,10,100}-{1767,10,100}-{1769,10,100}-{1771,10,100}-{1773,10,100}"
  },
  {
    "npcs": "3166",
    "high_alch": "0",
    "currency": "995",
    "general_store": "false",
    "id": "65",
    "title": "Dodgy Mikes Second-hand Clothing",
    "stock": "{7114,10,100}"
  },
  {
    "npcs": "2161",
    "high_alch": "0",
    "currency": "995",
    "general_store": "false",
    "id": "66",
    "title": "Agmundi Quality Clothes",
    "stock": ""
  },
  {
    "npcs": "2162",
    "high_alch": "0",
    "currency": "995",
    "general_store": "false",
    "id": "67",
    "title": "Vermundi's Clothes Stall",
    "stock": "{950,10,100}"
  },
  {
    "npcs": "600",
    "high_alch": "0",
    "currency": "995",
    "general_store": "false",
    "id": "68",
    "title": "Grand Tree Groceries",
    "stock": "{2171,10,100}-{2128,10,100}-{1933,10,100}-{2169,10,100}-{1957,10,100}-{1942,10,100}-{1965,10,100}-{1982,10,100}-{1985,10,100}-{2120,10,100}-{2108,10,100}-{2102,10,100}-{2114,10,100}-{2126,10,100}-{2025,10,100}-{1973,10,100}-{1975,10,100}-{2130,10,100}-{1927,10,100}-{946,10,100}-{2167,10,100}-{2164,10,100}-{2165,10,100}-{2166,10,100}"
  },
  {
    "npcs": "593",
    "high_alch": "0",
    "currency": "995",
    "general_store": "false",
    "id": "69",
    "title": "Frenita's Cookery Shop.",
    "stock": "{2313,5,100}-{1955,2,100}-{1887,2,100}-{1923,2,100}-{1942,5,100}-{590,4,100}-{1935,1,100}-{1931,8,100}-{1973,2,100}-{1933,8,100}-{1980,20,100}"
  },
  {
    "npcs": "545",
    "high_alch": "0",
    "currency": "995",
    "general_store": "false",
    "id": "70",
    "title": "Dommik's Crafting Store",
    "stock": "{1755,10,100}-{1592,10,100}-{1597,10,100}-{1595,10,100}-{1733,10,100}-{1734,1000,100}-{1599,10,100}-{2976,10,100}-{5523,10,100}-{9434,10,100}-{11065,10,100}"
  },
  {
    "npcs": "585",
    "high_alch": "1",
    "currency": "995",
    "general_store": "false",
    "id": "71",
    "title": "Rommik's Crafty Supplies",
    "stock": "{1755,10,100}-{1592,10,100}-{1597,10,100}-{1595,10,100}-{1733,10,100}-{1734,1000,100}-{1599,10,100}-{2976,10,100}-{5523,10,100}-{9434,10,100}-{11065,10,100}"
  },
  {
    "npcs": "5268",
    "high_alch": "0",
    "currency": "995",
    "general_store": "false",
    "id": "72",
    "title": "Jamila's Craft Stall",
    "stock": "{1755,10,100}-{1592,10,100}-{1597,10,100}-{1595,10,100}-{1733,10,100}-{1734,1000,100}-{1599,10,100}-{2976,10,100}-{5523,10,100}-{11065,10,100}"
  },
  {
    "npcs": "2305",
    "high_alch": "0",
    "currency": "995",
    "general_store": "false",
    "id": "73",
    "title": "Vanessa's Farming Shop",
    "stock": "{5376,10,100}-{6032,300,100}-{5418,10,100}-{6036,10,100}-{5350,100,100}-{5341,10,100}-{5329,10,100}-{5343,10,100}-{952,10,100}-{5325,10,100}-{1925,100,100}-{5331,30,100}-{12622,10,100}-{5996,0,100}-{6006,0,100}-{1965,0,100}-{5994,0,100}-{5931,0,100}-{6000,0,100}-{1957,0,100}-{5504,0,100}-{5986,0,100}-{1982,0,100}-{5982,0,100}-{6002,0,100}-{5998,0,100}"
  },
  {
    "npcs": "2307",
    "high_alch": "0",
    "currency": "995",
    "general_store": "false",
    "id": "74",
    "title": "Alice's Farming Shop",
    "stock": "{5376,10,100}-{6032,300,100}-{5418,10,100}-{6036,10,100}-{5350,100,100}-{5341,10,100}-{5329,10,100}-{5343,10,100}-{952,10,100}-{5325,10,100}-{1925,100,100}-{5331,30,100}-{12622,10,100}-{5996,0,100}-{6006,0,100}-{1965,0,100}-{5994,0,100}-{5931,0,100}-{6000,0,100}-{1957,0,100}-{5504,0,100}-{5986,0,100}-{1982,0,100}-{5982,0,100}-{6002,0,100}-{5998,0,100}"
  },
  {
    "npcs": "2304",
    "high_alch": "1",
    "currency": "995",
    "general_store": "false",
    "id": "75",
    "title": "Sarah's Farming Shop",
    "stock": "{5376,10,100}-{6032,300,100}-{5418,10,100}-{6036,10,100}-{5350,100,100}-{5341,10,100}-{5329,10,100}-{5343,10,100}-{952,10,100}-{5325,10,100}-{1925,100,100}-{5331,30,100}-{12622,10,100}-{5996,0,100}-{6006,0,100}-{1965,0,100}-{5994,0,100}-{5931,0,100}-{6000,0,100}-{1957,0,100}-{5504,0,100}-{5986,0,100}-{1982,0,100}-{5982,0,100}-{6002,0,100}-{5998,0,100}"
  },
  {
    "npcs": "2306",
    "high_alch": "0",
    "currency": "995",
    "general_store": "false",
    "id": "76",
    "title": "Richard's Farming Shop",
    "stock": "{5376,10,100}-{6032,300,100}-{5418,10,100}-{6036,10,100}-{5350,100,100}-{5341,10,100}-{5329,10,100}-{5343,10,100}-{952,10,100}-{5325,10,100}-{1925,100,100}-{5331,30,100}-{12622,10,100}-{5996,0,100}-{6006,0,100}-{1965,0,100}-{5994,0,100}-{5931,0,100}-{6000,0,100}-{1957,0,100}-{5504,0,100}-{5986,0,100}-{1982,0,100}-{5982,0,100}-{6002,0,100}-{5998,0,100}"
  },
  {
    "npcs": "557",
    "high_alch": "1",
    "currency": "995",
    "general_store": "false",
    "id": "77",
    "title": "Wydin's Food Store",
    "stock": "{1933,500,100}-{2132,10,100}-{2138,10,100}-{1965,10,100}-{1963,0,100}-{1951,0,100}-{2309,10,100}-{1973,10,100}-{1985,10,100}-{1982,10,100}-{1550,10,100}"
  },
  {
    "npcs": "1038",
    "high_alch": "0",
    "currency": "995",
    "general_store": "false",
    "id": "78",
    "title": "Rufus's Meat Emporium",
    "stock": "{2132,100,100}-{2138,30,100}-{2134,10,100}-{2136,10,100}-{335,0,100}-{349,0,100}-{331,0,100}-{383,0,100}"
  },
  {
    "npcs": "1433",
    "high_alch": "0",
    "currency": "995",
    "general_store": "false",
    "id": "79",
    "title": "Solihib's Consumables Stall",
    "stock": "{4012,10,100}-{1963,10,100}-{4016,10,100}-{4014,10,100}"
  },
  {
    "npcs": "7054",
    "high_alch": "0",
    "currency": "995",
    "general_store": "false",
    "id": "80",
    "title": "Fresh Meat",
    "stock": "{2134,10,100}-{2132,300,100}-{2136,10,100}-{2142,10,100}-{2138,10,100}-{2140,10,100}-{3226,100,100}-{7224,0,100}-{7223,0,100}-{3228,10,100}-{2876,0,100}-{7230,0,100}-{2878,0,100}-{7566,0,100}-{2337,0,100}-{9978,100,100}-{9984,0,100}-{9980,0,100}-{9986,0,100}-{9992,0,100}-{9988,0,100}"
  },
  {
    "npcs": "571",
    "high_alch": "0",
    "currency": "995",
    "general_store": "false",
    "id": "81",
    "title": "Ardougne Baker's Stall",
    "stock": "{2309,10,100}-{1891,10,100}-{1973,100,100}"
  },
  {
    "npcs": "5487",
    "high_alch": "1",
    "currency": "995",
    "general_store": "false",
    "id": "82",
    "title": "Keepa Kettilon's store",
    "stock": "{361,20,100}-{329,20,100}-{339,20,100}-{379,10,100}-{373,0,100}-{385,0,100}"
  },
  {
    "npcs": "851",
    "high_alch": "0",
    "currency": "995",
    "general_store": "false",
    "id": "83",
    "title": "Gianne's Restaurant",
    "stock": "{2223,10,100}-{2225,10,100}-{2221,10,100}-{2219,10,100}-{2227,10,100}-{2233,10,100}-{2231,10,100}-{2235,10,100}-{2229,10,100}-{2241,10,100}-{2243,10,100}-{2239,10,100}-{2237,10,100}"
  },
  {
    "npcs": "4294",
    "high_alch": "0",
    "currency": "995",
    "general_store": "false",
    "id": "84",
    "title": "Warriors' Guild Potion Shop",
    "stock": "{115,10,100}-{121,10,100}-{133,10,100}"
  },
  {
    "npcs": "4293",
    "high_alch": "1",
    "currency": "995",
    "general_store": "false",
    "id": "85",
    "title": "Warriors' Guild Food Shop",
    "stock": "{333,10,100}-{365,10,100}-{2289,10,100}-{6705,10,100}-{2003,10,100}"
  },
  {
    "npcs": "4295",
    "high_alch": "0",
    "currency": "995",
    "general_store": "false",
    "id": "86",
    "title": "Warriors' Guild Armoury",
    "stock": "{1363,10,100}-{1365,10,100}-{1369,10,100}-{1277,10,100}-{1279,10,100}-{1281,10,100}-{1283,10,100}-{1285,10,100}-{1287,10,100}-{1307,10,100}-{1309,10,100}-{1311,10,100}-{1313,10,100}-{1315,10,100}-{1317,10,100}-{1211,10,100}-{1301,10,100}-{1297,10,100}"
  },
  {
    "npcs": "584",
    "high_alch": "1",
    "currency": "995",
    "general_store": "false",
    "id": "87",
    "title": "Herquin's Gems",
    "stock": "{1623,0,100}-{1621,0,100}-{1619,0,100}-{1617,0,100}-{1607,0,100}-{1605,0,100}-{1603,0,100}-{1601,0,100}"
  },
  {
    "npcs": "570",
    "high_alch": "0",
    "currency": "995",
    "general_store": "false",
    "id": "88",
    "title": "Ardougne Gem Stall",
    "stock": "{1623,0,100}-{1621,0,100}-{1619,0,100}-{1617,0,100}-{1607,0,100}-{1605,0,100}-{1603,0,100}-{1601,0,100}"
  },
  {
    "npcs": "2157",
    "high_alch": "0",
    "currency": "995",
    "general_store": "false",
    "id": "89",
    "title": "Green Gemstone Gem",
    "stock": "{1607,0,100}-{1605,0,100}-{1603,0,100}-{1601,0,100}"
  },
  {
    "npcs": "540",
    "high_alch": "0",
    "currency": "995",
    "general_store": "false",
    "id": "90",
    "title": "Gem Trader (stall)",
    "stock": "{1623,0,100}-{1621,0,100}-{1619,0,100}-{1617,0,100}-{1607,0,100}-{1605,0,100}-{1603,0,100}-{1601,0,100}"
  },
  {
    "npcs": "540",
    "high_alch": "0",
    "currency": "995",
    "general_store": "false",
    "id": "91",
    "title": "Gem Trader (stall)",
    "stock": "{1623,0,100}-{1621,0,100}-{1619,0,100}-{1617,0,100}-{1607,0,100}-{1605,0,100}-{1603,0,100}-{1601,0,100}"
  },
  {
    "npcs": "2157",
    "high_alch": "0",
    "currency": "995",
    "general_store": "false",
    "id": "92",
    "title": "Gem Store",
    "stock": "{1623,1,100}-{1621,1,100}-{1619,0,100}-{1617,0,100}"
  },
  {
    "npcs": "",
    "high_alch": "0",
    "currency": "995",
    "general_store": "false",
    "id": "93",
    "title": "Pelters' Veg Stall",
    "stock": "{2518,100,100}"
  },
  {
    "npcs": "569",
    "high_alch": "0",
    "currency": "995",
    "general_store": "false",
    "id": "94",
    "title": "Ardougne Silver Stall",
    "stock": "{1714,10,100}-{442,0,100}-{2355,0,100}"
  },
  {
    "npcs": "572",
    "high_alch": "0",
    "currency": "995",
    "general_store": "false",
    "id": "95",
    "title": "Ardougne Spice Stall",
    "stock": "{2007,10,100}-{946,10,100}-{1550,10,100}"
  },
  {
    "npcs": "958",
    "high_alch": "0",
    "currency": "995",
    "general_store": "false",
    "id": "96",
    "title": "Shop of Distate",
    "stock": "{2518,1,100}"
  },
  {
    "npcs": "573",
    "high_alch": "0",
    "currency": "995",
    "general_store": "false",
    "id": "97",
    "title": "Ardougne Fur Stall",
    "stock": "{948,10,100}-{958,10,100}-{10117,0,100}-{10121,0,100}-{10119,0,100}-{10123,0,100}-{10093,0,100}-{10095,0,100}-{10097,0,100}-{10099,0,100}-{10101,0,100}-{10103,0,100}"
  },
  {
    "npcs": "538",
    "high_alch": "0",
    "currency": "995",
    "general_store": "false",
    "id": "98",
    "title": "Peksa's Helmet Shop",
    "stock": "{1139,5,100}-{1137,3,100}-{1141,3,100}-{1143,1,100}-{1145,1,100}-{1155,4,100}-{1153,3,100}-{1157,2,100}-{1159,1,100}-{1161,1,100}"
  },
  {
    "npcs": "1303",
    "high_alch": "0",
    "currency": "995",
    "general_store": "false",
    "id": "99",
    "title": "Skulgrimen's Battle Gear",
    "stock": "{1337,10,100}-{1335,10,100}-{1339,10,100}-{1341,10,100}-{1343,10,100}-{1347,0,100}-{3749,10,100}-{3751,10,100}-{3753,10,100}-{3755,10,100}"
  },
  {
    "npcs": "595",
    "high_alch": "0",
    "currency": "995",
    "general_store": "false",
    "id": "100",
    "title": "Tea Shop",
    "stock": "{712,10,100}"
  },
  {
    "npcs": "704",
    "high_alch": "0",
    "currency": "995",
    "general_store": "false",
    "id": "102",
    "title": "Grud's Herblore Stall.",
    "stock": "{229,10,100}-{233,10,100}-{221,10,100}"
  },
  {
    "npcs": "587",
    "high_alch": "0",
    "currency": "995",
    "general_store": "false",
    "id": "103",
    "title": "Jatix's Herblore Shop",
    "stock": "{229,300,480}-{233,10,100}-{221,1000,100}"
  },
  {
    "npcs": "5110",
    "high_alch": "0",
    "currency": "995",
    "general_store": "false",
    "id": "104",
    "title": "Aleck's Hunter Emporium",
    "stock": "{10010,10,100}-{10012,300,100}-{10025,300,100}-{10150,10,100}-{10006,30,100}-{10008,30,100}-{10029,10,100}-{596,10,100}-{10031,30,100}-{12539,0,100}"
  },
  {
    "npcs": "5109",
    "high_alch": "0",
    "currency": "995",
    "general_store": "false",
    "id": "105",
    "title": "Nardah Hunter Shop",
    "stock": "{10010,10,100}-{10012,300,100}-{10025,300,100}-{10150,10,100}-{10006,30,100}-{10008,30,100}-{10029,10,100}-{596,10,100}-{10031,30,100}-{12539,0,100}"
  },
  {
    "npcs": "556",
    "high_alch": "0",
    "currency": "995",
    "general_store": "false",
    "id": "106",
    "title": "Grum's Gold Exchange",
    "stock": "{1635,0,100}-{1637,0,100}-{1639,0,100}-{1641,0,100}-{1643,0,100}-{1654,0,100}-{1656,0,100}-{1658,0,100}-{1660,0,100}-{1662,0,100}-{1692,0,100}-{1694,0,100}-{1696,0,100}-{1698,0,100}-{1700,0,100}-{11069,0,100}-{11072,0,100}-{11076,0,100}-{11085,0,100}-{11092,0,100}"
  },
  {
    "npcs": "1862",
    "high_alch": "0",
    "currency": "995",
    "general_store": "false",
    "id": "107",
    "title": "Ali's Discount Wares",
    "stock": "{1931,30,100}-{1935,10,100}-{1825,10,100}-{1833,10,100}-{1837,10,100}-{1925,30,100}-{4593,10,100}-{4591,10,100}-{970,1,100}-{946,10,100}-{590,10,100}-{1265,10,100}-{2138,10,100}"
  },
  {
    "npcs": "1865",
    "high_alch": "0",
    "currency": "995",
    "general_store": "false",
    "id": "108",
    "title": "Ali the Kebab Seller",
    "stock": "{1971,10,100}"
  },
  {
    "npcs": "543",
    "high_alch": "0",
    "currency": "995",
    "general_store": "false",
    "id": "109",
    "title": "Karim",
    "stock": "{1971,10,100}"
  },
  {
    "npcs": "2198",
    "high_alch": "0",
    "currency": "995",
    "general_store": "false",
    "id": "110",
    "title": "Kjut's KEbabs",
    "stock": "{1971,10,100}"
  },
  {
    "npcs": "580",
    "high_alch": "0",
    "currency": "995",
    "general_store": "false",
    "id": "111",
    "title": "Flynn's Mace Market",
    "stock": "{1422,5,100}-{1420,4,100}-{1424,4,100}-{1428,3,100}-{1430,2,100}"
  },
  {
    "npcs": "1862",
    "high_alch": "0",
    "currency": "995",
    "general_store": "false",
    "id": "112",
    "title": "Ali's Discount Wares#runes",
    "stock": "{1931,30,100}-{1935,10,100}-{1833,10,100}-{1837,10,100}-{1925,10,100}-{4593,10,100}-{4591,10,100}-{970,10,100}-{946,10,100}-{590,10,100}-{1265,10,100}-{2138,10,100}-{6416,10,100}-{4600,10,100}-{556,300,100}-{555,300,100}-{557,300,100}-{554,300,100}-{561,300,100}-{563,300,100}-{562,300,100}-{560,300,100}-{558,300,100}-{559,300,100}-{565,100,100}-{564,300,100}-{566,100,100}-{6382,30,100}-{6388,30,100}-{6390,30,100}-{1835,30,100}"
  },
  {
    "npcs": "583",
    "high_alch": "1",
    "currency": "995",
    "general_store": "false",
    "id": "113",
    "title": "Betty's Magic Emporium",
    "stock": "{554,300,100}-{555,300,100}-{556,300,100}-{557,300,100}-{558,100,100}-{559,100,100}-{562,30,100}-{560,10,100}-{221,100,100}-{579,10,100}-{1017,10,100}"
  },
  {
    "npcs": "553",
    "high_alch": "0",
    "currency": "995",
    "general_store": "false",
    "id": "114",
    "title": "Aubury's Rune Shop",
    "stock": "{554,5000,100}-{555,5000,100}-{556,5000,100}-{557,5000,100}-{558,5000,100}-{559,5000,100}-{562,500,100}-{560,500,100}"
  },
  {
    "npcs": "461",
    "high_alch": "0",
    "currency": "995",
    "general_store": "false",
    "id": "115",
    "title": "Magic Guild Store",
    "stock": "{556,5000,100}-{555,5000,100}-{557,5000,100}-{554,5000,100}-{558,5000,100}-{559,5000,100}-{562,250,100}-{561,250,100}-{560,250,100}-{563,250,100}-{565,250,100}-{566,250,100}-{1391,5,100}-{1387,2,100}-{1383,2,100}-{1381,2,100}-{1385,2,100}"
  },
  {
    "npcs": "4513",
    "high_alch": "0",
    "currency": "995",
    "general_store": "false",
    "id": "116",
    "title": "Baba Yaga's Magic Shop",
    "stock": "{556,1000,100}-{555,1000,100}-{557,1000,100}-{554,1000,100}-{558,1000,100}-{559,1000,100}-{562,300,100}-{561,300,100}-{560,300,100}-{563,100,100}-{565,100,100}-{566,100,100}-{9075,100,100}-{1391,20,100}-{1387,10,100}-{1383,10,100}-{1381,10,100}-{1385,10,100}-{9078,10,100}"
  },
  {
    "npcs": "3097",
    "high_alch": "0",
    "currency": "995",
    "general_store": "false",
    "id": "117",
    "title": "Mage Training Arena#rewards",
    "stock": ""
  },
  {
    "npcs": "903",
    "high_alch": "0",
    "currency": "995",
    "general_store": "false",
    "id": "118",
    "title": "Lundail's Arena-side Rune Shop",
    "stock": "{554,1000,100}-{555,1000,100}-{556,1000,100}-{557,1000,100}-{558,1000,100}-{559,1000,100}-{561,300,100}-{562,300,100}-{563,100,100}-{564,300,100}-{560,300,100}"
  },
  {
    "npcs": "1435",
    "high_alch": "0",
    "currency": "995",
    "general_store": "false",
    "id": "119",
    "title": "Tutab's Magical Market",
    "stock": "{554,1000,100}-{555,1000,100}-{556,1000,100}-{557,1000,100}-{563,100,100}-{4009,10,100}-{4006,10,100}-{4023,10,100}"
  },
  {
    "npcs": "3798",
    "high_alch": "0",
    "currency": "995",
    "general_store": "false",
    "id": "120",
    "title": "Void Knight Magic Store",
    "stock": "{554,1000,100}-{555,1000,100}-{556,1000,100}-{557,1000,100}-{558,1000,100}-{559,1000,100}-{562,300,100}-{560,300,100}"
  },
  {
    "npcs": "2623",
    "high_alch": "0",
    "currency": "6529",
    "general_store": "false",
    "id": "121",
    "title": "Tzhaar-mej-roh's Rune Store",
    "stock": "{554,1000,100}-{555,1000,100}-{557,1000,100}-{556,1000,100}-{558,1000,100}-{559,1000,100}-{562,300,100}-{560,100,100}"
  },
  {
    "npcs": "2622",
    "high_alch": "0",
    "currency": "6529",
    "general_store": "false",
    "id": "122",
    "title": "Tzhaar-Hur-Lek's Ore and Gem Store.",
    "stock": "{438,5,100}-{436,5,100}-{440,2,100}-{442,0,100}-{453,0,100}-{444,0,100}-{447,0,100}-{449,0,100}-{451,0,100}-{1623,1,100}-{1621,1,100}-{1619,0,100}-{1617,0,100}-{1631,0,100}-{6571,1,100}-{9194,50,100}"
  },
  {
    "npcs": "1658",
    "high_alch": "0",
    "currency": "995",
    "general_store": "false",
    "id": "123",
    "title": "Magic Guild Store",
    "stock": "{4089,1000,100}-{4091,1000,100}-{4093,1000,100}-{4095,1000,100}-{4097,1000,100}"
  },
  {
    "npcs": "594",
    "high_alch": "0",
    "currency": "995",
    "general_store": "false",
    "id": "124",
    "title": "Nurmof's Pickaxe Shop",
    "stock": "{1265,10,100}-{1267,10,100}-{1269,10,100}-{1273,10,100}-{1271,10,100}-{1275,10,100}"
  },
  {
    "npcs": "579",
    "high_alch": "0",
    "currency": "995",
    "general_store": "false",
    "id": "125",
    "title": "Drogo's Mining Emporium",
    "stock": "{2347,10,100}-{1265,10,100}-{436,0,100}-{438,0,100}-{440,0,100}-{453,0,100}-{2349,0,100}-{2351,0,100}-{2357,0,100}"
  },
  {
    "npcs": "2160",
    "high_alch": "0",
    "currency": "995",
    "general_store": "false",
    "id": "126",
    "title": "Pickaxe-is-mine",
    "stock": "{1265,10,100}-{1269,10,100}-{1273,10,100}-{1271,10,100}-{1275,10,100}"
  },
  {
    "npcs": "6750,6898,6893",
    "high_alch": "0",
    "currency": "995",
    "general_store": "false",
    "id": "127",
    "title": "Pet Shop",
    "stock": "{12130,10,100}-{12125,1000,100}-{12127,10,100}-{12183,125000,100}"
  },
  {
    "npcs": "589",
    "high_alch": "0",
    "currency": "995",
    "general_store": "false",
    "id": "128",
    "title": "Zenesha's Platebody Shop",
    "stock": "{1117,10,100}-{1115,10,100}-{1119,10,100}-{1125,10,100}-{1121,10,100}"
  },
  {
    "npcs": "549",
    "high_alch": "0",
    "currency": "995",
    "general_store": "false",
    "id": "129",
    "title": "Horvik's Armour Shop",
    "stock": "{1103,10,100}-{1101,10,100}-{1173,10,100}-{1175,10,100}-{1075,10,100}-{1067,10,100}-{1087,10,100}-{1081,10,100}-{1117,10,100}-{1115,10,100}-{1119,10,100}-{1125,10,100}-{1121,10,100}-{1097,10,100}-{1133,10,100}"
  },
  {
    "npcs": "5485",
    "high_alch": "1",
    "currency": "995",
    "general_store": "false",
    "id": "130",
    "title": "Armour Shop",
    "stock": "{1109,4,100}-{1143,4,100}-{1159,4,100}-{1181,4,100}-{1197,4,100}-{1071,4,100}-{1085,4,100}-{1121,4,100}"
  },
  {
    "npcs": "542",
    "high_alch": "0",
    "currency": "995",
    "general_store": "false",
    "id": "131",
    "title": "Louie's Armoured Legs Bazaar",
    "stock": "{1075,10,100}-{1067,10,100}-{1069,10,100}-{1077,10,100}-{1071,10,100}-{1073,10,100}"
  },
  {
    "npcs": "549",
    "high_alch": "0",
    "currency": "995",
    "general_store": "false",
    "id": "132",
    "title": "Horvik's Armour Shop",
    "stock": "{1103,10,100}-{1101,10,100}-{1173,10,100}-{1175,10,100}-{1075,10,100}-{1067,10,100}-{1087,10,100}-{1081,10,100}-{1117,10,100}-{1115,10,100}-{1119,10,100}-{1125,10,100}-{1121,10,100}-{1097,10,100}-{1133,10,100}"
  },
  {
    "npcs": "3038",
    "high_alch": "0",
    "currency": "995",
    "general_store": "false",
    "id": "133",
    "title": "Seddus Adventurers Store",
    "stock": "{1093,10,100}-{1079,10,100}-{1113,10,100}-{1099,10,100}-{1193,10,100}"
  },
  {
    "npcs": "544",
    "high_alch": "0",
    "currency": "995",
    "general_store": "false",
    "id": "134",
    "title": "Ranael's Super Skirt Store",
    "stock": "{1087,10,100}-{1081,10,100}-{1083,10,100}-{1089,10,100}-{1085,10,100}-{1091,10,100}"
  },
  {
    "npcs": "541",
    "high_alch": "0",
    "currency": "995",
    "general_store": "false",
    "id": "135",
    "title": "Zeke's Superior Scimitars",
    "stock": "{1321,10,100}-{1323,10,100}-{1325,10,100}-{1329,10,100}"
  },
  {
    "npcs": "1434",
    "high_alch": "0",
    "currency": "995",
    "general_store": "false",
    "id": "136",
    "title": "Daga's Scimitar Smithy",
    "stock": "{1321,10,100}-{1323,10,100}-{1325,10,100}-{1329,10,100}-{4587,10,100}"
  },
  {
    "npcs": "577",
    "high_alch": "1",
    "currency": "995",
    "general_store": "false",
    "id": "137",
    "title": "Cassie's Shield Shop",
    "stock": "{1171,5,100}-{1173,3,100}-{1189,3,100}-{1175,2,100}-{1191,0,100}-{1177,0,100}-{1193,0,100}-{1181,0,100}"
  },
  {
    "npcs": "209",
    "high_alch": "0",
    "currency": "995",
    "general_store": "false",
    "id": "138",
    "title": "Multicannon parts for sale",
    "stock": "{6,5,100}-{8,5,100}-{10,5,100}-{12,5,100}-{5,5,100}-{4,5,100}"
  },
  {
    "npcs": "1980",
    "high_alch": "0",
    "currency": "995",
    "general_store": "false",
    "id": "139",
    "title": "The Spice Is Right",
    "stock": "{1931,30,100}-{2169,10,100}-{5970,0,100}-{175,10,100}"
  },
  {
    "npcs": "546",
    "high_alch": "0",
    "currency": "995",
    "general_store": "false",
    "id": "140",
    "title": "Staff Shop",
    "stock": "{1379,10,100}-{1389,10,100}-{1381,10,100}-{1383,10,100}-{1385,10,100}-{1387,10,100}"
  },
  {
    "npcs": "6971",
    "high_alch": "0",
    "currency": "995",
    "general_store": "false",
    "id": "141",
    "title": "Pikkupstix's Summoning Shop",
    "stock": "{12204,10,100}-{12207,10,100}-{12210,10,100}-{12213,10,100}-{12216,10,100}-{12219,10,100}-{12222,10,100}-{12183,125000,100}-{12155,5000,100}"
  },
  {
    "npcs": "4472",
    "high_alch": "0",
    "currency": "995",
    "general_store": "false",
    "id": "142",
    "title": "Bogrog's Summoning Shop",
    "stock": "{12204,10,100}-{12207,10,100}-{12210,0,100}-{12213,0,100}-{12216,0,100}-{12219,0,100}-{12222,0,100}-{12183,65000,100}-{12155,5000,100}"
  },
  {
    "npcs": "3671",
    "high_alch": "0",
    "currency": "995",
    "general_store": "false",
    "id": "143",
    "title": "Fortunato's Fine Wine",
    "stock": "{1993,10,100}-{1937,10,100}-{7919,10,100}-{1935,10,100}"
  },
  {
    "npcs": "558",
    "high_alch": "0",
    "currency": "995",
    "general_store": "false",
    "id": "144",
    "title": "Gerrant's Fishy Business",
    "stock": "{303,10,100}-{307,10,100}-{309,10,100}-{311,30,100}-{301,10,100}-{13431,10,100}-{313,1000,100}-{314,1000,100}-{317,0,100}-{327,10,100}-{345,0,100}-{321,0,100}-{335,0,100}-{349,0,100}-{331,0,100}-{359,0,100}-{377,0,100}-{371,0,100}"
  },
  {
    "npcs": "576",
    "high_alch": "0",
    "currency": "995",
    "general_store": "false",
    "id": "145",
    "title": "Harry's Fishing Shop",
    "stock": "{303,10,100}-{307,10,100}-{311,1000,100}-{301,10,100}-{313,100,100}-{305,10,100}-{317,0,100}-{327,0,100}-{345,0,100}-{353,0,100}-{341,0,100}-{321,0,100}-{359,0,100}-{377,0,100}-{363,0,100}-{371,0,100}-{383,0,100}-{7810,1000,100}"
  },
  {
    "npcs": "5266",
    "high_alch": "0",
    "currency": "995",
    "general_store": "false",
    "id": "146",
    "title": "Blades By Urbi",
    "stock": "{1205,10,100}-{1203,10,100}-{1207,10,100}-{1217,0,100}-{1209,10,100}-{1211,10,100}-{1213,10,100}-{1215,0,100}-{1321,10,100}-{1323,10,100}-{1325,10,100}"
  },
  {
    "npcs": "586",
    "high_alch": "0",
    "currency": "995",
    "general_store": "false",
    "id": "147",
    "title": "Gaius' Two Handed Shop.",
    "stock": "{1307,4,100}-{1309,3,100}-{1311,2,100}-{1313,1,100}-{1315,1,100}-{1317,1,100}"
  },
  {
    "npcs": "602",
    "high_alch": "0",
    "currency": "995",
    "general_store": "false",
    "id": "148",
    "title": "Gulluck And Sons",
    "stock": "{882,1000,100}-{877,300,100}-{880,0,100}-{841,10,100}-{837,10,100}-{1363,10,100}-{1365,10,100}-{1369,10,100}-{1307,10,100}-{1309,10,100}-{1311,10,100}-{1313,10,100}-{1315,10,100}-{1317,10,100}"
  },
  {
    "npcs": "552,551",
    "high_alch": "0",
    "currency": "995",
    "general_store": "false",
    "id": "149",
    "title": "Varrock Sword Shop",
    "stock": "{1277,10,100}-{1279,10,100}-{1281,10,100}-{1283,10,100}-{1285,10,100}-{1287,10,100}-{1291,10,100}-{1293,10,100}-{1295,10,100}-{1297,10,100}-{1299,10,100}-{1301,10,100}-{1205,10,100}-{1203,10,100}-{1207,10,100}-{1217,10,100}-{1209,10,100}-{1211,10,100}"
  },
  {
    "npcs": "541",
    "high_alch": "0",
    "currency": "995",
    "general_store": "false",
    "id": "150",
    "title": "Zeke's Superior Scimitars",
    "stock": "{1321,10,100}-{1323,10,100}-{1325,10,100}-{1329,10,100}"
  },
  {
    "npcs": "692",
    "high_alch": "0",
    "currency": "995",
    "general_store": "false",
    "id": "151",
    "title": "Authentic Throwing Weapons",
    "stock": "{825,1000,100}-{826,1000,100}-{827,1000,100}-{828,300,100}-{829,100,100}-{830,100,100}-{800,900,100}-{801,800,100}-{802,700,100}-{803,600,100}-{804,500,100}-{805,400,100}"
  },
  {
    "npcs": "797",
    "high_alch": "0",
    "currency": "995",
    "general_store": "false",
    "id": "152",
    "title": "Happy Heroes Hemporium",
    "stock": "{1377,1,100}-{1434,1,100}"
  },
  {
    "npcs": "564",
    "high_alch": "0",
    "currency": "995",
    "general_store": "false",
    "id": "153",
    "title": "Jukat's Dragon Sword Shop",
    "stock": "{1305,2,100}-{1215,2,100}"
  },
  {
    "npcs": "4312",
    "high_alch": "0",
    "currency": "995",
    "general_store": "false",
    "id": "154",
    "title": "Nardok's Bone Weapons",
    "stock": "{5018,10,100}-{5016,10,100}-{8872,10,100}-{8880,10,100}-{8882,25000,100}"
  },
  {
    "npcs": "2152",
    "high_alch": "0",
    "currency": "995",
    "general_store": "false",
    "id": "155",
    "title": "Quality Weapons Shop",
    "stock": "{1365,10,100}-{1369,10,100}-{1285,10,100}-{1287,10,100}-{1325,10,100}-{1297,10,100}-{1303,10,100}-{853,10,100}-{888,100,100}-{890,100,100}"
  },
  {
    "npcs": "1208",
    "high_alch": "0",
    "currency": "995",
    "general_store": "false",
    "id": "156",
    "title": "Quartermaster's Stores",
    "stock": "{1931,30,100}-{1935,10,100}-{1735,10,100}-{590,10,100}-{2309,10,100}-{3190,10,100}-{3192,10,100}-{3194,10,100}-{3196,10,100}-{3198,10,100}-{3200,10,100}-{3202,10,100}-{3204,10,100}"
  },
  {
    "npcs": "2572,2233",
    "high_alch": "0",
    "currency": "995",
    "general_store": "false",
    "id": "157",
    "title": "Draynor Seed Market",
    "stock": "{5318,20,100}-{5319,10,100}-{5324,10,100}-{5322,0,100}-{5320,0,100}-{5323,0,100}-{5321,0,100}-{5305,20,100}-{5306,5,100}-{5097,20,100}-{5096,20,100}-{5307,20,100}-{5308,10,100}-{5309,5,100}-{5310,0,100}-{5311,0,100}"
  },
  {
    "npcs": "3205",
    "high_alch": "0",
    "currency": "995",
    "general_store": "false",
    "id": "158",
    "title": "Romily Weaklax Pie's",
    "stock": "{2323,1,100}-{2325,1,100}-{2327,1,100}-{7178,1,100}-{7188,1,100}-{7198,1,100}"
  },
  {
    "npcs": "70,1598,1596,1597,1599,8274,8275,8276,8277,8273,8271,8270,2253,7780",
    "high_alch": "0",
    "currency": "995",
    "general_store": "false",
    "id": "159",
    "title": "Slayer Equipment",
    "stock": "{4155,50,100}-{4156,50,100}-{4158,50,100}-{4160,50000,100}-{4161,5000,100}-{4162,50,100}-{4164,50,100}-{4166,50,100}-{4168,50,100}-{4170,50,100}-{4551,50,100}-{6664,5000,100}-{6696,3000,100}-{6720,50,100}-{7051,50,100}-{7159,50,100}-{7421,50,100}-{7432,50,100}-{8923,50,100}-{10952,50,100}-{13279,5000,100}-{13278,3000,100}"
  },
  {
    "npcs": "2257,2258,2259",
    "high_alch": "0",
    "currency": "995",
    "general_store": "false",
    "id": "160",
    "title": "Battle Runes",
    "stock": "{554,100,100}-{555,100,100}-{556,100,100}-{557,100,100}-{558,100,100}-{559,100,100}-{562,30,100}-{560,30,100}"
  },
  {
    "npcs": "3162",
    "high_alch": "0",
    "currency": "995",
    "general_store": "false",
    "id": "161",
    "title": "Smithing Smiths Shop",
    "stock": "{1321,10,100}-{1323,10,100}-{1325,10,100}-{1329,10,100}-{2347,10,100}"
  },
  {
    "npcs": "1167",
    "high_alch": "0",
    "currency": "995",
    "general_store": "false",
    "id": "162",
    "title": "Tamayu's Spear Stall",
    "stock": "{3188,10,100}"
  },
  {
    "npcs": "2620",
    "high_alch": "0",
    "currency": "6529",
    "general_store": "false",
    "id": "163",
    "title": "Tzhaar-hur-tel's Equipment Store",
    "stock": "{6522,500,100}-{6525,1,100}-{6523,1,100}-{6524,1,100}-{6526,1,100}-{6527,1,100}-{6528,1,100}-{6568,1,100}"
  },
  {
    "npcs": "2151",
    "high_alch": "0",
    "currency": "995",
    "general_store": "false",
    "id": "164",
    "title": "Vigr's Warhammers",
    "stock": "{1337,10,100}-{1335,10,100}-{1339,10,100}-{1341,10,100}-{1343,10,100}"
  },
  {
    "npcs": "5486",
    "high_alch": "1",
    "currency": "995",
    "general_store": "false",
    "id": "165",
    "title": "Weapons galore",
    "stock": "{1299,4,100}-{1343,4,100}-{1369,4,100}-{3099,4,100}-{1315,4,100}"
  },
  {
    "npcs": "4250",
    "high_alch": "0",
    "currency": "995",
    "general_store": "false",
    "id": "166",
    "title": "Construction supplies",
    "stock": "{8794,10,100}-{8790,300,100}-{4819,300,100}-{4820,300,100}-{1539,300,100}"
  },
  {
    "npcs": "1079",
    "high_alch": "0",
    "currency": "995",
    "general_store": "false",
    "id": "167",
    "title": "The Toad and Chicken",
    "stock": "{1905,12,100}-{1907,12,100}-{1913,12,100}"
  },
  {
    "npcs": "2270",
    "high_alch": "0",
    "currency": "995",
    "general_store": "false",
    "id": "168",
    "title": "Martin Thwait's Lost and Found.",
    "stock": "{954,50,100}-{1523,25,100}-{1755,30,100}-{946,20,100}-{5560,25,100}-{864,15,100}-{863,10,100}-{865,5,100}-{3095,3,100}-{3096,2,100}-{3097,1,100}"
  },
  {
    "npcs": "970",
    "high_alch": "0",
    "currency": "995",
    "general_store": "false",
    "id": "169",
    "title": "Diango's Toy Store",
    "stock": "{2526,10,100}-{2520,10,100}-{2522,10,100}-{2524,10,100}-{4613,10,100}-{12844,10,100}"
  },
  {
    "npcs": "793",
    "high_alch": "0",
    "currency": "995",
    "general_store": "false",
    "id": "170",
    "title": "The Shrimp and Parrot",
    "stock": "{347,5,100}-{339,5,100}-{379,3,100}-{373,2,100}-{3144,3,100}"
  },
  {
    "npcs": "747",
    "high_alch": "0",
    "currency": "995",
    "general_store": "false",
    "id": "171",
    "title": "Oziach's Armour",
    "stock": "{1127,2,100}-{1135,2,100}"
  },
  {
    "npcs": "537",
    "high_alch": "0",
    "currency": "995",
    "general_store": "false",
    "id": "172",
    "title": "Scavvo's Rune Store",
    "stock": "{1093,1,100}-{1079,1,100}-{1432,1,100}-{1113,1,100}-{1303,1,100}-{1289,1,100}-{1099,1,100}-{1065,1,100}-{1169,2,100}"
  },
  {
    "npcs": "536",
    "high_alch": "0",
    "currency": "995",
    "general_store": "false",
    "id": "173",
    "title": "Valaine's Shop of Champions.",
    "stock": "{1021,2,100}-{1165,1,100}-{1077,1,100}-{1123,1,100}"
  },
  {
    "npcs": "833",
    "high_alch": "0",
    "currency": "995",
    "general_store": "true",
    "id": "174",
    "title": "Bebadin Village Bartering",
    "stock": "{1823,30,100}-{1831,30,100}-{1937,10,100}-{1921,10,100}-{1929,10,100}-{946,10,100}-{2347,10,100}"
  },
  {
    "npcs": "566",
    "high_alch": "0",
    "currency": "995",
    "general_store": "false",
    "id": "175",
    "title": "Irksol",
    "stock": "{1641,5,100}"
  },
  {
    "npcs": "904",
    "high_alch": "0",
    "currency": "995",
    "general_store": "false",
    "id": "176",
    "title": "Mage Arena Staffs",
    "stock": "{2415,5,100}-{2416,5,100}-{2417,5,100}"
  },
  {
    "npcs": "",
    "high_alch": "0",
    "currency": "995",
    "general_store": "false",
    "id": "177",
    "title": "Culinaromancer's Chest",
    "stock": "{1973,50,100}-{1982,50,100}-{1987,9,100}-{2283,1,100}-{1927,50,100}-{6697,50,100}-{2313,50,100}-{1923,50,100}-{1931,50,100}-{1925,50,100}-{1985,50,100}-{1955,50,100}-{1933,50,100}-{1944,50,100}-{2130,50,100}-{2007,50,100}-{1887,50,100}-{1935,50,100}-{1980,50,100}"
  },
  {
    "npcs": "",
    "high_alch": "0",
    "currency": "995",
    "general_store": "false",
    "id": "178",
    "title": "Culinaromancer's Chest",
    "stock": "{7453,5,100}-{7454,5,100}-{7455,5,100}-{7456,5,100}-{7457,5,100}-{7458,5,100}-{7459,5,100}-{7460,5,100}-{7461,5,100}-{7462,5,100}-{7433,5,100}-{7435,5,100}-{7437,5,100}-{7439,5,100}-{7441,5,100}-{7443,5,100}-{7445,5,100}-{7447,5,100}-{7449,5,100}-{7451,5,100}"
  },
  {
    "npcs": "2290",
    "high_alch": "0",
    "currency": "995",
    "general_store": "false",
    "id": "179",
    "title": "Sir Tiffy Cashien",
    "stock": "{5574,10,100}-{5576,10,100}-{5575,10,100}-{9672,10,100}-{9676,10,100}-{9674,10,100}-{9678,10,100}"
  },
  {
    "npcs": "933",
    "high_alch": "0",
    "currency": "995",
    "general_store": "false",
    "id": "180",
    "title": "Legends' Guild Shop of Useful Items",
    "stock": "{299,100,100}-{1542,5,100}-{1590,3,100}-{1052,1,100}-{2368,3,100}"
  },
  {
    "npcs": "4518",
    "high_alch": "0",
    "currency": "995",
    "general_store": "false",
    "id": "181",
    "title": "MoonClan Fine Clothes",
    "stock": "{9068,10,100}-{9069,10,100}-{9070,10,100}-{9071,10,100}-{9072,10,100}-{9073,10,100}-{9074,10,100}-{1733,50,100}-{1734,500,100}"
  },
  {
    "npcs": "",
    "high_alch": "0",
    "currency": "995",
    "general_store": "false",
    "id": "182",
    "title": "Delicious Goods",
    "stock": "{2436,150000,100}-{2440,150000,100}-{2442,150000,100}-{2444,150000,100}-{3040,150000,100}-{2434,150000,100}-{3024,150000,100}-{2452,150000,100}-{6685,150000,100}-{9739,150000,100}-{385,150000,100}-{3144,150000,100}-{391,150000,100}-{7060,150000,100}-{7946,150000,100}-{379,150000,100}-{7218,150000,100}-{2301,150000,100}"
  },
  {
    "npcs": "",
    "high_alch": "0",
    "currency": "995",
    "general_store": "false",
    "id": "183",
    "title": "Armour & Supplies",
    "stock": "{5698,150000,100}-{1305,150000,100}-{4587,150000,100}-{1377,150000,100}-{1434,150000,100}-{7158,150000,100}-{3204,150000,100}-{4151,150000,100}-{4153,150000,100}-{6528,150000,100}-{1333,150000,100}-{1319,150000,100}-{10887,150000,100}-{5574,150000,100}-{5575,150000,100}-{5576,150000,100}-{9672,150000,100}-{9674,150000,100}-{9676,150000,100}-{1067,150000,100}-{1115,150000,100}-{1153,150000,100}-{1079,150000,100}-{1127,150000,100}-{1163,150000,100}-{6107,150000,100}-{6109,150000,100}-{6108,150000,100}-{6524,150000,100}-{10828,150000,100}-{3751,150000,100}-{3753,150000,100}-{3105,150000,100}-{7460,150000,100}"
  },
  {
    "npcs": "",
    "high_alch": "0",
    "currency": "995",
    "general_store": "false",
    "id": "184",
    "title": "Range Supplies",
    "stock": "{9241,150000,100}-{9243,150000,100}-{9242,150000,100}-{9244,150000,100}-{9245,150000,100}-{9144,150000,100}-{9305,150000,100}-{868,150000,100}-{11230,150000,100}-{6522,150000,100}-{892,150000,100}-{2491,150000,100}-{2497,150000,100}-{2503,150000,100}-{6328,150000,100}-{3749,150000,100}-{861,150000,100}-{9185,150000,100}-{4214,150000,100}-{1169,150000,100}-{1129,150000,100}-{10034,150000,100}"
  },
  {
    "npcs": "",
    "high_alch": "0",
    "currency": "995",
    "general_store": "false",
    "id": "185",
    "title": "Magic Emporium",
    "stock": "{554,150000,100}-{555,150000,100}-{556,150000,100}-{557,150000,100}-{558,150000,100}-{559,150000,100}-{560,150000,100}-{561,150000,100}-{562,150000,100}-{563,150000,100}-{564,150000,100}-{565,150000,100}-{566,150000,100}-{9075,150000,100}-{4089,150000,100}-{4091,150000,100}-{4093,150000,100}-{4095,150000,100}-{4097,150000,100}-{4099,150000,100}-{4101,150000,100}-{4103,150000,100}-{4105,150000,100}-{4107,150000,100}-{4109,150000,100}-{4111,150000,100}-{4113,150000,100}-{4115,150000,100}-{4117,150000,100}-{6912,150000,100}-{3840,150000,100}-{3842,150000,100}-{3844,150000,100}-{1540,150000,100}-{2412,150000,100}-{2413,150000,100}-{2414,150000,100}-{4675,150000,100}-{2415,150000,100}-{2416,150000,100}-{2417,150000,100}-{577,150000,100}-{579,150000,100}-{2579,150000,100}"
  },
  {
    "npcs": "5509",
    "high_alch": "0",
    "currency": "995",
    "general_store": "false",
    "id": "186",
    "title": "Neitiznot Supplies",
    "stock": "{946,10,100}-{2347,10,100}-{1734,1000,100}-{1733,10,100}-{1351,10,100}-{1759,1000,100}-{4819,1000,100}"
  },
  {
    "npcs": "1778",
    "high_alch": "0",
    "currency": "995",
    "general_store": "false",
    "id": "187",
    "title": "William's Wilderness Cape Shop",
    "stock": "{4315,100,100}-{4335,100,100}-{4375,100,100}-{4395,100,100}"
  },
  {
    "npcs": "1779",
    "high_alch": "0",
    "currency": "995",
    "general_store": "false",
    "id": "188",
    "title": "Ian's Wilderness Cape Shop",
    "stock": "{4317,100,100}-{4337,100,100}-{4357,100,100}-{4377,100,100}-{4397,100,100}"
  },
  {
    "npcs": "1780",
    "high_alch": "0",
    "currency": "995",
    "general_store": "false",
    "id": "189",
    "title": "Larry's Wilderness Cape Shop",
    "stock": "{4319,100,100}-{4339,100,100}-{4359,100,100}-{4379,100,100}-{4399,100,100}"
  },
  {
    "npcs": "1781",
    "high_alch": "0",
    "currency": "995",
    "general_store": "false",
    "id": "190",
    "title": "Darren's Wilderness Cape Shop",
    "stock": "{4321,100,100}-{4341,100,100}-{4361,100,100}-{4381,100,100}-{4401,100,100}"
  },
  {
    "npcs": "1782",
    "high_alch": "0",
    "currency": "995",
    "general_store": "false",
    "id": "191",
    "title": "Edward's Wilderness Cape Shop",
    "stock": "{4323,100,100}-{4343,100,100}-{4363,100,100}-{4383,100,100}-{4403,100,100}"
  },
  {
    "npcs": "1783",
    "high_alch": "0",
    "currency": "995",
    "general_store": "false",
    "id": "192",
    "title": "Richard's Wilderness Cape Shop",
    "stock": "{4325,100,100}-{4345,100,100}-{4365,100,100}-{4385,100,100}-{4405,100,100}"
  },
  {
    "npcs": "1784",
    "high_alch": "0",
    "currency": "995",
    "general_store": "false",
    "id": "193",
    "title": "Neil's Wilderness Cape Shop",
    "stock": "{4327,100,100}-{4347,100,100}-{4367,100,100}-{4387,100,100}-{4407,100,100}"
  },
  {
    "npcs": "1785",
    "high_alch": "0",
    "currency": "995",
    "general_store": "false",
    "id": "194",
    "title": "Edmond's Wilderness Cape Shop",
    "stock": "{4329,100,100}-{4349,100,100}-{4369,100,100}-{4389,100,100}-{4409,100,100}"
  },
  {
    "npcs": "1786",
    "high_alch": "0",
    "currency": "995",
    "general_store": "false",
    "id": "195",
    "title": "Simon's Wilderness Cape Shop",
    "stock": "{4331,100,100}-{4351,100,100}-{4371,100,100}-{4391,100,100}-{4411,100,100}"
  },
  {
    "npcs": "1787",
    "high_alch": "0",
    "currency": "995",
    "general_store": "false",
    "id": "196",
    "title": "Sam's Wilderness Cape Shop",
    "stock": "{4333,100,100}-{4353,100,100}-{4373,100,100}-{4393,100,100}-{4413,100,100}"
  },
  {
    "npcs": "",
    "high_alch": "0",
    "currency": "995",
    "general_store": "false",
    "id": "198",
    "title": "Candle Shop",
    "stock": "{36,10,100}-{38,10,100}"
  },
  {
    "npcs": "",
    "high_alch": "0",
    "currency": "995",
    "general_store": "false",
    "id": "200",
    "title": "The Teleporter's Tabs",
    "stock": "{8007,100,100}-{8008,100,100}-{8009,100,100}-{8010,100,100}-{8011,100,100}-{8012,100,100}"
  },
  {
    "npcs": "",
    "high_alch": "0",
    "currency": "995",
    "general_store": "false",
    "id": "201",
    "title": "The Fairy's Culinary Goods",
    "stock": "{330,10000000,100}-{6706,10000000,100}-{380,10000000,100}-{7219,10000000,100}-{2290,10000000,100}-{2302,10000000,100}-{1892,10000000,100}-{229,10000000,100}"
  },
  {
    "npcs": "1369",
    "high_alch": "0",
    "currency": "995",
    "general_store": "false",
    "id": "209",
    "title": "Holy Wares",
    "stock": "{6746,1,100}-{732,100,100}"
  },
  {
    "npcs": "694",
    "high_alch": "0",
    "currency": "1464",
    "general_store": "false",
    "id": "210",
    "title": "Ranging Guild Ticket Exchange",
    "stock": "{47,10000000,100}-{1133,10000000,100}-{892,10000000,100}-{1169,10000000,100}-{1135,10000000,100}-{829,10000000,100}"
  },
  {
    "npcs": "3045",
    "high_alch": "0",
    "currency": "995",
    "general_store": "false",
    "id": "211",
    "title": "Rok's Choc Box",
    "stock": "{6794,30,100}-{1973,25,100}"
  },
  {
    "npcs": "1688",
    "high_alch": "0",
    "currency": "995",
    "general_store": "false",
    "id": "212",
    "title": "Ak-haranu's Exotic Goods",
    "stock": "{4740,100000,100}"
  },
  {
    "npcs": "4251",
    "high_alch": "1",
    "currency": "995",
    "general_store": "false",
    "id": "213",
    "title": "The Garden Centre",
    "stock": "{8417,10,100}-{8419,10,100}-{8421,10,100}-{8423,10,100}-{8425,10,100}-{8427,10,100}-{8429,10,100}-{8431,1000,100}-{8433,10,100}-{8435,10,100}-{8451,10,100}-{8453,10,100}-{8455,10,100}-{8457,10,100}-{8459,10,100}-{8461,10,100}-{8437,10,100}-{8439,10,100}-{8441,10,100}-{8443,10,100}-{8445,10,100}-{8447,10,100}-{8449,10,100}"
  },
  {
    "npcs": "1972",
    "high_alch": "0",
    "currency": "995",
    "general_store": "false",
    "id": "214",
    "title": "Rasolo's Goods",
    "stock": "{1969,2,100}-{2023,4,100}-{740,10,100}-{1215,1,100}-{550,1,100}-{583,2,100}-{1941,10,100}-{970,1,100}-{975,1,100}-{1599,1,100}-{2976,1,100}-{1823,1,100}-{1837,1,100}-{1864,5,100}-{2520,1,100}-{3377,1,100}-{626,1,100}-{1909,1,100}-{3787,1,100}-{3711,1,100}-{3678,1,100}-{3424,5,100}-{3420,1,100}-{5,1,100}"
  },
  {
    "npcs": "592",
    "high_alch": "0",
    "currency": "995",
    "general_store": "false",
    "id": "215",
    "title": "Fishing Guild Shop.",
    "stock": "{313,1000,100}-{314,1000,100}-{341,0,100}-{353,0,100}-{363,0,100}-{359,0,100}-{377,0,100}-{371,0,100}-{339,0,100}-{355,0,100}-{365,0,100}-{361,0,100}-{379,0,100}-{373,0,100}"
  },
  {
    "npcs": "5483",
    "high_alch": "1",
    "currency": "995",
    "general_store": "false",
    "id": "216",
    "title": "Ore Store",
    "stock": "{436,20,100}-{438,10,100}-{440,10,100}-{442,5,100}-{453,10,100}-{444,5,100}-{447,0,100}-{449,0,100}"
  },
  {
    "npcs": "596",
    "high_alch": "0",
    "currency": "995",
    "general_store": "false",
    "id": "217",
    "title": "Tony's Pizza Bases",
    "stock": "{2283,10,100}"
  },
  {
    "npcs": "2159",
    "high_alch": "0",
    "currency": "995",
    "general_store": "false",
    "id": "218",
    "title": "Silver Cog Silver Stall",
    "stock": "{1714,2,100}-{442,1,100}-{2355,1,100}"
  },
  {
    "npcs": "2158",
    "high_alch": "0",
    "currency": "995",
    "general_store": "false",
    "id": "219",
    "title": "Carefree Crafting Stall",
    "stock": "{1755,2,100}-{1592,4,100}-{1597,2,100}-{1733,3,100}-{1734,100,100}-{1759,100,100}"
  },
  {
    "npcs": "2156",
    "high_alch": "0",
    "currency": "995",
    "general_store": "false",
    "id": "220",
    "title": "Keldagrim's Best Bread",
    "stock": "{2309,10,100}-{1891,3,100}-{1901,8,100}"
  },
  {
    "npcs": "2153",
    "high_alch": "0",
    "currency": "995",
    "general_store": "false",
    "id": "221",
    "title": "Quality Armour Shop",
    "stock": "{1105,3,100}-{1109,1,100}-{1107,1,100}-{1111,1,100}-{1141,3,100}-{1143,1,100}-{1145,1,100}-{1177,0,100}-{1195,0,100}"
  },
  {
    "npcs": "2564",
    "force_shared": "true",
    "high_alch": "0",
    "currency": "995",
    "general_store": "false",
    "id": "222",
    "title": "Ore Shop\b",
    "stock": "{436,0,0}-{438,0,0}-{440,0,0}-{442,0,0}-{444,0,0}-{447,0,0}-{453,0,0}"
  },
  {
    "npcs": "603",
    "high_alch": "0",
    "currency": "995",
    "general_store": "false",
    "id": "223",
    "title": "Funch's Fine Groceries",
    "stock": "{2021,10,100}-{2019,10,100}-{2015,10,100}-{2017,10,100}-{2114,10,100}-{2128,20,100}-{2108,20,100}-{2102,20,100}-{2126,5,100}-{2025,10,100}-{1973,20,100}-{1975,10,100}-{2130,5,100}-{1927,5,100}-{946,5,100}-{2026,20,100}"
  },
  {
    "npcs": "578",
    "high_alch": "0",
    "currency": "995",
    "general_store": "false",
    "id": "224",
    "title": "Frincos' Fabulous Herb Store.",
    "stock": "{229,10,100}-{233,10,100}-{221,10,100}"
  },
  {
    "npcs": "555",
    "high_alch": "0",
    "currency": "995",
    "general_store": "true",
    "id": "225",
    "title": "Port Khazard General Store",
    "stock": "{1941,200,10}-{954,10,10}-{583,10,100}-{1931,30,100}-{1935,10,100}-{1735,10,100}-{1925,10,100}-{1923,10,100}-{1887,10,100}-{590,10,100}-{1755,10,100}-{2347,10,100}-{550,10,100}-{9003,10,100}"
  },
  {
    "npcs": "",
    "high_alch": "0",
    "currency": "6306",
    "general_store": "false",
    "id": "226",
    "title": "Gabooty's Tai Bwo Wannai Cooperative",
    "stock": "{6341,10,100}-{6343,10,100}-{6345,10,100}-{6347,10,100}-{6349,10,100}-{6313,10,100}-{6315,10,100}-{6317,10,100}-{6351,10,100}-{6353,10,100}-{6355,10,100}-{6357,10,100}-{6359,10,100}-{1625,0,100}-{1627,0,100}-{1629,0,100}-{6361,10,100}-{6363,10,100}-{6365,10,100}-{6367,10,100}-{6369,10,100}-{1609,0,100}-{1611,0,100}-{1613,0,100}-{6371,10,100}-{6373,10,100}-{6375,10,100}-{6377,10,100}-{6379,10,100}-{6311,0,100}"
  },
  {
    "npcs": "2161",
    "high_alch": "0",
    "currency": "995",
    "general_store": "false",
    "id": "227",
    "title": "Agmundi Quality Clothes",
    "stock": "{5050,3,100}-{5052,3,100}-{5038,3,100}-{5040,3,100}-{5044,3,100}-{5046,3,100}-{5026,3,100}-{5028,3,100}-{5032,3,100}-{5034,3,100}"
  },
  {
    "npcs": "517",
    "high_alch": "0",
    "currency": "995",
    "general_store": "false",
    "id": "228",
    "title": "Fernahei's Fishing Hut",
    "stock": "{307,10,100}-{309,10,100}-{313,1000,100}-{314,1000,100}-{335,0,100}-{349,0,100}-{331,0,100}"
  },
  {
    "npcs": "2357",
    "high_alch": "0",
    "currency": "995",
    "general_store": "false",
    "id": "229",
    "title": "Lletya Food Store",
    "stock": "{2309,10,100}-{379,10,100}-{1993,10,100}-{1985,10,100}-{1891,10,100}"
  },
  {
    "npcs": "2356",
    "high_alch": "0",
    "currency": "995",
    "general_store": "false",
    "id": "230",
    "title": "Lletya Archery Shop",
    "stock": "{884,2000,100}-{886,500,100}-{888,500,100}-{890,450,100}-{892,400,100}-{877,1500,100}-{843,5,100}-{845,5,100}-{837,5,100}-{849,5,100}-{847,5,100}"
  },
  {
    "npcs": "1282",
    "high_alch": "0",
    "currency": "995",
    "general_store": "false",
    "id": "232",
    "title": "Sigmund the Merchant",
    "stock": "{590,10,100}-{954,10,100}-{1931,30,100}-{2142,10,100}-{2309,10,100}-{952,10,100}-{36,10,100}-{1755,10,100}-{229,310,100}-{227,310,100}-{1925,30,100}-{1944,10,100}-{1942,10,100}-{233,10,100}-{2347,10,100}-{1929,10,100}"
  },
  {
    "npcs": "1315",
    "high_alch": "0",
    "currency": "995",
    "general_store": "false",
    "id": "233",
    "title": "Fremennik Fishmonger",
    "stock": "{303,5,100}-{307,5,100}-{309,5,100}-{311,2,100}-{301,2,100}-{313,1000,100}-{314,1000,100}-{305,5,100}-{317,10,100}-{327,10,100}-{345,0,100}-{353,0,100}-{341,0,100}-{321,0,100}-{335,0,100}-{331,0,100}-{359,0,100}-{377,0,100}-{363,0,100}-{371,0,100}-{383,0,100}"
  },
  {
    "npcs": "1300",
    "high_alch": "0",
    "currency": "995",
    "general_store": "false",
    "id": "234",
    "title": "Rellekka Longhall Bar",
    "stock": "{1917,10,100}-{3803,10,100}-{3711,10,100}"
  },
  {
    "npcs": "7420",
    "high_alch": "0",
    "currency": "995",
    "general_store": "false",
    "id": "235",
    "title": "Gnomic Supplies",
    "stock": "{1931,100,100}-{1929,100,100}-{1937,100,100}-{2313,100,100}-{1887,100,100}-{590,100,100}-{1735,100,100}-{1951,100,100}-{1969,100,100}-{1949,100,100}"
  },
  {
    "npcs": "4248",
    "high_alch": "0",
    "currency": "995",
    "general_store": "false",
    "id": "236",
    "title": "Keldagrim Stonemason",
    "stock": "{3420,500,100}-{8786,30,100}-{8784,30,100}-{8788,30,100}"
  },
  {
    "npcs": "4856",
    "high_alch": "0",
    "currency": "995",
    "general_store": "false",
    "id": "237",
    "title": "Lovecraft's Tackle",
    "stock": "{303,10,100}-{307,10,100}-{309,10,100}-{311,1000,100}-{301,10,100}-{313,1000,100}-{314,1000,100}-{317,0,100}-{327,10,100}-{345,0,100}-{321,0,100}-{335,0,100}-{349,0,100}-{331,0,100}-{359,0,100}-{377,0,100}-{371,0,100}"
  },
  {
    "npcs": "5484",
    "high_alch": "0",
    "currency": "995",
    "general_store": "false",
    "id": "238",
    "title": "Flosi's Fishmongers",
    "stock": "{377,5,100}-{359,20,100}-{331,20,100}-{341,20,100}-{383,0,100}"
  },
  {
    "npcs": "5495",
    "high_alch": "0",
    "currency": "995",
    "general_store": "false",
    "id": "239",
    "title": "Contraband yak produce.",
    "stock": "{10818,25,100}-{10816,50,100}-{10814,50,100}-{10820,10,100}"
  },
  {
    "npcs": "1163,1164",
    "high_alch": "0",
    "currency": "995",
    "general_store": "false",
    "id": "240",
    "title": "Tiadeche's Karambwan Stall",
    "stock": "{3142,10,100}-{3157,10,100}"
  },
  {
    "npcs": "",
    "high_alch": "0",
    "currency": "995",
    "general_store": "false",
    "id": "241",
    "title": "Wishing Well",
    "stock": "{12204,10,100}-{12207,10,100}-{12210,0,100}-{12213,0,100}-{12216,0,100}-{12219,0,100}-{12222,0,100}-{12183,65000,100}-{12155,5000,100}"
  },
  {
    "npcs": "4965",
    "high_alch": "0",
    "currency": "995",
    "general_store": "false",
    "id": "242",
    "title": "Leprechaun Larry's Farming Supplies.",
    "stock": "{5341,10,100}-{5343,10,100}-{5329,10,100}-{952,10,100}-{5325,10,100}-{5331,10,100}-{1925,10,100}-{6036,10,100}-{2026,10,100}-{1480,10,100}"
  },
  {
    "npcs": "849",
    "high_alch": "0",
    "currency": "995",
    "general_store": "false",
    "id": "243",
    "title": "Blurberry Bar",
    "stock": "{2028,10,100}-{2030,10,100}-{2032,10,100}-{2034,10,100}-{2036,10,100}-{2038,10,100}-{2040,10,100}"
  },
  {
    "npcs": "2565",
    "high_alch": "0",
    "currency": "995",
    "general_store": "false",
    "id": "244",
    "title": "The Armour Store",
    "stock": "{1147,0,100}-{1163,0,100}-{1127,0,100}-{1093,0,100}-{1185,0,100}-{1201,0,100}-{1113,0,100}-{1079,0,100}-{1145,0,100}-{1161,0,100}-{1123,0,100}-{1091,0,100}-{1183,0,100}-{1199,0,100}-{1111,0,100}-{1073,0,100}-{1143,0,100}-{1159,0,100}-{1121,0,100}-{1085,0,100}-{1181,0,100}-{1197,0,100}-{1109,0,100}-{1071,0,100}"
  },
  {
    "npcs": "7048",
    "high_alch": "0",
    "currency": "995",
    "general_store": "false",
    "id": "245",
    "title": "Gift Shop",
    "stock": "{590,10,100}-{2866,100,100}-{2878,10,100}-{314,1000,100}-{1351,10,100}-{954,10,100}-{1931,30,100}-{1925,30,100}-{2347,10,100}-{946,10,100}-{12561,10,100}-{12563,10,100}-{12565,0,100}-{12567,0,100}-{12568,0,100}-{12559,0,100}-{12570,0,100}"
  },
  {
    "npcs": "3923",
    "high_alch": "0",
    "currency": "995",
    "general_store": "false",
    "id": "246",
    "title": "Miscellanian Food Shop",
    "stock": "{2309,5,100}-{1985,5,100}-{1965,5,100}-{1942,5,100}-{1957,5,100}-{1933,5,100}-{1973,5,100}-{1927,5,100}"
  },
  {
    "npcs": "3920",
    "high_alch": "0",
    "currency": "995",
    "general_store": "false",
    "id": "247",
    "title": "The Esoterican Arms",
    "stock": "{1917,10,100}-{5763,10,100}-{1993,5,100}-{1798,5,100}"
  },
  {
    "npcs": "1383,3921",
    "high_alch": "0",
    "currency": "995",
    "general_store": "false",
    "id": "248",
    "title": "Miscellanian Clothes Shop",
    "stock": "{3767,5,100}-{3769,5,100}-{3771,5,100}-{3773,5,100}-{3775,5,100}-{3795,5,100}-{5050,3,100}-{5052,3,100}-{5038,3,100}-{5040,3,100}-{5044,3,100}-{5046,3,100}-{5026,3,100}-{5028,3,100}-{5032,3,100}-{5034,3,100}"
  },
  {
    "npcs": "1393",
    "high_alch": "0",
    "currency": "995",
    "general_store": "false",
    "id": "249",
    "title": "Island Fishmonger",
    "stock": "{303,5,100}-{307,5,100}-{309,5,100}-{311,2,100}-{301,2,100}-{313,1500,100}-{314,1000,100}-{305,5,100}-{317,0,100}-{325,200,100}-{345,0,100}-{353,0,100}-{341,0,100}-{321,0,100}-{335,0,100}-{349,0,100}-{331,0,100}-{359,0,100}-{377,0,100}-{363,0,100}-{371,0,100}-{383,0,100}"
  },
  {
    "npcs": "1394",
    "high_alch": "0",
    "currency": "995",
    "general_store": "false",
    "id": "250",
    "title": "Greengrocer of Miscellania",
    "stock": "{1965,10,100}-{1942,10,100}-{1957,10,100}-{1982,10,100}-{1550,2,100}"
  },
  {
    "npcs": "932",
    "high_alch": "0",
    "currency": "995",
    "general_store": "false",
    "id": "251",
    "title": "Legends Guild General Store",
    "stock": "{373,20,100}-{2323,5,100}-{121,3,100}-{886,500,100}"
  },
  {
    "npcs": "3161",
    "high_alch": "0",
    "currency": "995",
    "general_store": "false",
    "id": "252",
    "title": "Two Feet Charley's Fish Shop",
    "stock": "{317,10,100}-{327,10,100}-{345,10,100}-{353,10,100}-{341,10,100}-{321,10,100}-{359,0,100}-{377,0,100}-{363,0,100}"
  },
  {
    "npcs": "1316",
    "high_alch": "0",
    "currency": "995",
    "general_store": "false",
    "id": "253",
    "title": "Fremennik Fur Trader",
    "stock": "{948,10,100}-{958,10,100}-{10117,0,100}-{10121,0,100}-{10119,0,100}-{10123,0,100}-{10093,0,100}-{10095,0,100}-{10097,0,100}-{10099,0,100}-{10101,0,100}-{10103,0,100}"
  },
  {
    "npcs": "",
    "high_alch": "0",
    "currency": "6306",
    "general_store": "false",
    "id": "254",
    "title": "Gabooty's Tai Bwo Wannai Drinky Store",
    "stock": "{2084,0,100}-{2092,0,100}-{2048,0,100}-{2054,0,100}-{2064,0,100}-{2074,0,100}"
  },
  {
    "npcs": "1526",
    "high_alch": "0",
    "currency": "4067",
    "general_store": "false",
    "id": "255",
    "title": "Castle Wars Ticket Exchange",
    "stock": "{4068,1,100}-{4069,1,100}-{4070,1,100}-{4071,1,100}-{4072,1,100}-{4503,1,100}-{4504,1,100}-{4505,1,100}-{4506,1,100}-{4507,1,100}-{4508,1,100}-{4509,1,100}-{4510,1,100}-{4511,1,100}-{4512,1,100}-{4513,1,100}-{4514,1,100}-{4515,1,100}-{4516,1,100}"
  }
]